NotionalYear,CaseStudy,CulturalContext,SpatialContext,Dating,TotalArea,SubsistenceAdjustment,WealthRatio,Source,DocumentType
-2800,Lugalanda,Lagash,Lagash,Predynastic Mesopotamia,209,1.62,129,,"Admin.
"
-2700,Shagshag,Lagash,Lagash,Predynastic Mesopotamia,324,1.62,200,,"Admin.
"
-2550,Metjen,Egypt,Egypt,4th Dynasty,71,1.34,53,,Tomb Bio.
-2250,Ibi,Egypt,Egypt,6th Dynasty,"54
",1.34,41,,Tomb Bio.
-2050,(unnamed),"Umma, Mesop.","Umma, Mesopotamia",Ur III,381,1.62,235,,Admin. 
-1800,Tehip-tilla,"Nuzi, Mesop.","Nuzi, Mesopotamia",Hurrian,2000,6.48,309,,Land Sale
-1400,Amenhotep,Egypt,Egypt,18th Dynasty,115,1.34,85,,Donation
-1300,(unspecified),Mesopotamia,Mesopotamia,Kassite,1000,1.62,617,,Land Grant
-800,Iuwelot,Egypt,"Egypt,",22nd Dynasty,149,1.34,111,,Land Sale
-700,Atar-il,Mesopotamia,Mesopotamia,Neo-Assyrian,500,1.62,309,,Land Sale
-600,Haltiki,Mesopotamia,Mesopotamia,NeoBabylonian,360,1.62,222,,Land Sale
-650,Nabu-sharru-usur ,Mesopotamia,Mesopotamia,Neo-Assyrian,1700,1.62,1049,,Land Grant
-560,Peftuaneith,Egypt,Egypt,26th Dynasty,267,1.34,200,,Donation
-540,Nitocris,Egypt,Egypt,26th Dynasty,1096,1.34,669,,Land Grant
-150,Apollonius,Egypt,Egypt,Ptolemaic,2671,1.34,2000,,Land Grant
50,Yin Shih,Han China,Han China ,1st Century AD,3237,2.8,1156,,Estate Size
500,Flavius Apion,Egypt,Egypt,Byzantine,6677,1.34,5000,,Estate Size
1830,Simon Clarke ,Colonial Jamaica,Colonial Jamaica,,£500k,£35 p.a.,1429,,Estate Value
