{
"type": "FeatureCollection",
"name": "citadel_zones",
"crs": { "type": "name", "properties": { "name": "urn:ogc:def:crs:OGC:1.3:CRS84" } },
"features": [
{ "type": "Feature", "properties": { "id": null, "Region": "Caucasus and Transcaucasia", "EarliestYr": null, "Source": null, "LatestYr": null }, "geometry": { "type": "MultiPolygon", "coordinates": [ [ [ [ 38.17235432443649, 44.650029634572597 ], [ 40.170017055059525, 44.794368100219685 ], [ 43.044808183083141, 44.169860658675013 ], [ 45.220795058296346, 43.213843795780747 ], [ 47.472601845879531, 42.880562587442576 ], [ 48.214523316624899, 42.192314370274971 ], [ 48.877764178322082, 41.412519819512639 ], [ 49.453581383758213, 39.839885744210029 ], [ 48.531521493243766, 38.350169298590153 ], [ 47.40135929301448, 36.503979802829086 ], [ 46.655941199695299, 35.130177358985009 ], [ 45.158937025649493, 34.469313944610739 ], [ 43.483555250290358, 36.320285580136478 ], [ 42.399635381916831, 36.986960759887204 ], [ 40.677392665110474, 37.217355995019823 ], [ 38.407277223875454, 37.448015794349288 ], [ 36.944730034803932, 38.164772519708215 ], [ 34.773690487705011, 39.000471096006827 ], [ 33.310076343841423, 39.20997088009112 ], [ 34.887715418103546, 40.143948497628401 ], [ 37.136344269984193, 40.941619660974894 ], [ 39.125167676659423, 40.77710174255995 ], [ 41.018372234949922, 40.941619660974894 ], [ 41.954317747953048, 41.648447800716013 ], [ 41.890595918701038, 42.405606378737531 ], [ 41.125165495641703, 43.142369474185763 ], [ 38.17235432443649, 44.650029634572597 ] ] ] ] } },
{ "type": "Feature", "properties": { "id": null, "Region": "Aegean", "EarliestYr": null, "Source": null, "LatestYr": null }, "geometry": { "type": "MultiPolygon", "coordinates": [ [ [ [ 23.855258615205837, 38.582166021753416 ], [ 22.981924744152337, 38.164772519708208 ], [ 21.555889045604097, 37.655838099938656 ], [ 21.76757359336327, 36.825840046312642 ], [ 23.791065733928122, 35.175828096261078 ], [ 25.426103356037739, 34.765316505893807 ], [ 26.597931864301035, 35.31283829254172 ], [ 26.839087133635296, 36.7338283121383 ], [ 27.328431636945194, 37.840752467299815 ], [ 25.405999389405395, 38.721498911559877 ], [ 23.855258615205837, 38.582166021753416 ] ] ] ] } },
{ "type": "Feature", "properties": { "id": null, "Region": "Upper Egypt", "EarliestYr": null, "Source": null, "LatestYr": null }, "geometry": { "type": "MultiPolygon", "coordinates": [ [ [ [ 30.56882680005813, 29.270756406653309 ], [ 31.157913821802747, 27.848887199406342 ], [ 31.871238951912218, 26.478161240774259 ], [ 31.006619185936163, 24.937961640539935 ], [ 30.772383756628503, 23.754810658825619 ], [ 31.348316952452237, 22.793785198271294 ], [ 33.084328284800684, 22.662938340903789 ], [ 34.153765969050056, 23.536163197488914 ], [ 33.878696124986377, 25.201463014122176 ], [ 33.220122146880115, 26.8312894546332 ], [ 32.214254826098497, 28.381238108167178 ], [ 31.534058501411074, 29.270756406653309 ], [ 31.113656786229932, 29.449008856587923 ], [ 30.56882680005813, 29.270756406653309 ] ] ] ] } },
{ "type": "Feature", "properties": { "id": null, "Region": "Karakum", "EarliestYr": null, "Source": null, "LatestYr": null }, "geometry": { "type": "MultiPolygon", "coordinates": [ [ [ [ 58.888610635491794, 38.907434752295835 ], [ 59.8958581064445, 36.458040928802021 ], [ 62.531451750265141, 35.632869569183576 ], [ 65.03397292827735, 35.770173210240927 ], [ 67.898783262600219, 36.458040928802021 ], [ 68.653257769362128, 37.378789911459698 ], [ 66.625277208693873, 39.000471096006827 ], [ 64.118361750708502, 39.419705093123881 ], [ 62.009157199385051, 40.026941290452562 ], [ 59.415882031515942, 39.559659239543109 ], [ 58.888610635491794, 38.907434752295835 ] ] ] ] } },
{ "type": "Feature", "properties": { "id": null, "Region": "Argaric Iberia", "EarliestYr": null, "Source": null, "LatestYr": null }, "geometry": { "type": "MultiPolygon", "coordinates": [ [ [ [ -4.392385730623194, 36.768327849628378 ], [ -3.645333124066021, 36.814336308652663 ], [ -2.716945627610789, 36.814336308652663 ], [ -2.060026339061389, 36.929402968326983 ], [ -1.854762190491576, 37.228882678737996 ], [ -1.468623852671312, 37.598087844433515 ], [ -1.169014413567618, 37.782948088833457 ], [ -1.413305089575715, 38.014267816887788 ], [ -2.139706805205229, 38.037414825454121 ], [ -2.951367325344619, 37.829190232535161 ], [ -3.336186868751609, 37.551899753397223 ], [ -3.781590899866479, 37.344185968836719 ], [ -4.345614084531115, 37.13668770908609 ], [ -4.460645081334524, 36.998474280557467 ], [ -4.392385730623194, 36.768327849628378 ] ] ] ] } },
{ "type": "Feature", "properties": { "id": null, "Region": "Nuragic Sardinia", "EarliestYr": null, "Source": null, "LatestYr": null }, "geometry": { "type": "MultiPolygon", "coordinates": [ [ [ [ 9.682574424967138, 40.601001431714529 ], [ 9.01275144875223, 40.366470442106959 ], [ 8.492787319681034, 40.038638626380809 ], [ 8.429640021038482, 39.618004668332091 ], [ 8.550784298530498, 39.198325873509205 ], [ 8.755666220782139, 39.081915518925406 ], [ 9.148603156548573, 39.408047004476288 ], [ 9.379870575930141, 39.24491024259703 ], [ 9.485424097067801, 39.408047004476288 ], [ 9.560396343066826, 39.921699001889074 ], [ 9.638444808575862, 40.108838429279203 ], [ 9.683894212837622, 40.272743608792361 ], [ 9.682574424967138, 40.601001431714529 ] ] ] ] } },
{ "type": "Feature", "properties": { "id": null, "Region": "Malta", "EarliestYr": null, "Source": null, "LatestYr": null }, "geometry": { "type": "MultiPolygon", "coordinates": [ [ [ [ 14.70891122344988, 35.896113247841548 ], [ 14.581393874569622, 36.079433471781222 ], [ 14.239716116843541, 36.217029124967546 ], [ 13.92136089378033, 36.033588388050589 ], [ 13.985348914835903, 35.804513040003883 ], [ 14.358653655997772, 35.690068611998271 ], [ 14.628394940599682, 35.712952548448349 ], [ 14.70891122344988, 35.896113247841548 ] ] ] ] } },
{ "type": "Feature", "properties": { "id": null, "Region": "Ancestral Pueblo", "EarliestYr": null, "Source": null, "LatestYr": null }, "geometry": { "type": "MultiPolygon", "coordinates": [ [ [ [ -106.343430163767962, 36.740154928590819 ], [ -107.797009559263188, 37.711892395409542 ], [ -109.648438512690305, 38.082825921303723 ], [ -110.6427090692425, 37.754249371865342 ], [ -110.357970659547433, 36.782307251173918 ], [ -109.716158417863369, 35.741556810578913 ], [ -107.901761703502657, 35.249260730351502 ], [ -106.71778301901189, 35.259723338846776 ], [ -105.977375063424574, 35.44813745804052 ], [ -105.767280428731894, 35.720584840230281 ], [ -105.889630739452627, 36.192960134838657 ], [ -106.343430163767962, 36.740154928590819 ] ] ] ] } },
{ "type": "Feature", "properties": { "id": null, "Region": "Zimbabwes", "EarliestYr": null, "Source": null, "LatestYr": null }, "geometry": { "type": "MultiPolygon", "coordinates": [ [ [ [ 32.66208732994523, -20.279379199144092 ], [ 31.351040020474329, -19.646021218942899 ], [ 30.49124801876529, -19.497927161268851 ], [ 29.106884692457474, -19.915416926912314 ], [ 28.298907211427899, -20.96775783207719 ], [ 28.58488817454856, -22.470237912653737 ], [ 29.429330861973604, -22.795899653453741 ], [ 30.491801689003303, -22.700884615302428 ], [ 31.670894376022691, -22.592326686454211 ], [ 32.109821648728342, -22.795899653453741 ], [ 33.312482417579531, -22.619463109776078 ], [ 34.325580492519791, -22.55162586481363 ], [ 34.986510431015034, -22.415989387188024 ], [ 35.133658011733793, -22.2668474285786 ], [ 35.15408544061367, -21.846861950050599 ], [ 35.016111650639594, -21.494978328647232 ], [ 33.537117538625665, -20.630169174926763 ], [ 32.66208732994523, -20.279379199144092 ] ] ] ] } },
{ "type": "Feature", "properties": { "id": null, "Region": "Gujarat", "EarliestYr": null, "Source": null, "LatestYr": null }, "geometry": { "type": "MultiPolygon", "coordinates": [ [ [ [ 70.982551466115154, 24.713931325801337 ], [ 69.134007062526209, 24.134420010955161 ], [ 68.489840204999282, 23.515579915039122 ], [ 68.736948874575447, 22.964936503692069 ], [ 70.193590850068389, 23.032042043400601 ], [ 70.623459089291913, 22.951516916917221 ], [ 70.040044446527801, 22.334757260381963 ], [ 69.634174260122109, 21.665540338120632 ], [ 70.21753352342742, 21.371461266403475 ], [ 70.64716689553525, 21.010852764904975 ], [ 71.56696774918727, 21.064255156600669 ], [ 72.340524390119057, 21.83942146038876 ], [ 72.710432300395539, 22.830763371583387 ], [ 73.164647355002941, 23.623123975085704 ], [ 72.899985099480858, 24.17481835500455 ], [ 72.605277687291391, 24.916326394683523 ], [ 71.633904497021376, 24.916326394683523 ], [ 70.982551466115154, 24.713931325801337 ] ] ] ] } },
{ "type": "Feature", "properties": { "id": null, "Region": "Inner Mongolia", "EarliestYr": null, "Source": null, "LatestYr": null }, "geometry": { "type": "MultiPolygon", "coordinates": [ [ [ [ 119.254043817432617, 43.083593663551895 ], [ 116.445460959652038, 41.541481915375634 ], [ 112.310509176753598, 40.138819473177477 ], [ 109.203862279159438, 38.634507242264078 ], [ 107.809649538803455, 37.588524590985571 ], [ 108.711490760666152, 37.117160796187278 ], [ 110.452038783648277, 37.290691960904091 ], [ 112.934457595813484, 38.185540080950673 ], [ 115.180578498283353, 40.00041376255453 ], [ 116.478846375832049, 40.744016097979546 ], [ 118.172379331871099, 41.465375859713852 ], [ 119.059166339500791, 41.782705832358509 ], [ 119.643626902398978, 42.036992483450874 ], [ 120.154156029056125, 42.380883765847884 ], [ 120.273680691620612, 42.508429055461725 ], [ 120.385300210205259, 42.712703883149231 ], [ 120.169998292570924, 42.968400812157718 ], [ 119.791820330298975, 43.160433766394505 ], [ 119.602720292333544, 43.173243950910049 ], [ 119.254043817432617, 43.083593663551895 ] ] ] ] } }
]
}
