NotionalYear,CaseStudy,CulturalContext,SpatialContext,Dating,TotalFortune,SubsistenceAdjustment,WealthRatio,Source
-450,Egibi Family,Neo-Assyrian Babylon,Mesopotamia,,"2,296 Shekels* p.a.",18 shekels** p.a.,127,
50,Tiberius Claudius Narcissus,Roman Empire,Mediterranean,,"HS 400 million
","HS 1,400 p.a.",28571,
-50,Fan Li,Early Han China,China,,"100 million cash
","8,820 cash p.a.",1134,
50,Liang Ji,Later Han China,China,,3 billion cash,"12,600 cash p.a.",23809,
1700,Jakob Fugger,Renaissance Germany,Europe,,"2,021,202 Gulden †",66g gold p.a.,10106,
1937,J D Rockefeller,American Republic,North America,,US$ 1.4 billion,US$ 775 p.a.,180645,
