"SiteName","Classification","Period","Latitude","Longitude","LocationComment","CountedFinds","Source"
"Ulucak Höyük",2,"Neolithic",38.4666,27.3521,,12,"Bennison-Chapman 2019"
"Hacılar",3,"Neolithic",37.5798,30.0951,,,"Bennison-Chapman 2019"
"Höyücek",2,"Neolithic",,,,25,"Bennison-Chapman 2019"
"Bademağaclı Höyüğü",3,"Neolithic",37.2261,30.4845,,,"Bennison-Chapman 2019"
"Suberde",2,"Neolithic",,,,59,"Bennison-Chapman 2019"
"Erbaba",3,"Neolithic",,,,,"Bennison-Chapman 2019"
"Çatalhöyük",1,"Neolithic",37.6665,32.8283,,695,"Bennison-Chapman 2019"
"Boncuklu Höyük",1,"Neolithic",37.751725,32.864791,,672,"Bennison-Chapman 2019"
"Musular",3,"Neolithic",39.0276,33.6152,"?uncertain",,"Bennison-Chapman 2019"
"Aşıklı Höyük",2,"Neolithic",38.349122,34.229994,,5,"Bennison-Chapman 2019"
"Pınarbaşı",3,"Neolithic",,,,,"Bennison-Chapman 2019"
"Can Hasan",2,"Neolithic",37.263,33.3312,,2,"Bennison-Chapman 2019"
"Tepecik-Çiftlik",3,"Neolithic",38.172401,34.493938,,,"Bennison-Chapman 2019"
"Hacıbeyli Höyük",3,"Neolithic",38.12751,35.164492,"?uncertain",,"Bennison-Chapman 2019"
"Domuztepe",3,"Neolithic",37.2901,36.2546,,,"Bennison-Chapman 2019"
"Nevali Çori",3,"Neolithic",37.512524,38.599523,,,"Bennison-Chapman 2019"
"Göbekli Tepe",3,"Neolithic",37.223,38.9226,,,"Bennison-Chapman 2019"
"Balıklıgöl Höyük",3,"Neolithic",,,,,"Bennison-Chapman 2019"
"Tell ‘Abr 3",3,"Neolithic",36.6813,38.0902,,,"Bennison-Chapman 2019"
"Tell Kurdu",2,"Neolithic",36.330032,36.444892,,11,"Bennison-Chapman 2019"
"Tell Kosek Shamali",3,"Neolithic",36.5631,38.2835,,,"Bennison-Chapman 2019"
"Habuba Kabira",5,"Post-Neolithic",36.150164,38.060824,,,"Bennison-Chapman 2019"
"Tell Ain el-Kerkh",3,"Neolithic",35.819921,36.465157,"?uncertain",,"Bennison-Chapman 2019"
"Shir",3,"Neolithic",35.199364,36.622485,,,"Bennison-Chapman 2019"
"Mureybat",3,"Neolithic",36.068927,38.092085,,,"Bennison-Chapman 2019"
"Abu Hüreyra",3,"Neolithic",31.381757,34.606985,,,"Bennison-Chapman 2019"
"Bouqras",3,"Neolithic",35.1183,40.3685,,,"Bennison-Chapman 2019"
"Tell Ramad",3,"Neolithic",34.647871,40.87625,"?uncertain",,"Bennison-Chapman 2019"
"Tell Aswad",3,"Neolithic",33.228143,44.31565,,,"Bennison-Chapman 2019"
"Al Basatin??",3,"Neolithic",,,,,"Bennison-Chapman 2019"
"Sha’ar Hagolan",2,"Neolithic",,,,,"Bennison-Chapman 2019"
"Geshar",3,"Neolithic",,,,3,"Bennison-Chapman 2019"
"Yiftahel",3,"Neolithic",32.755168,35.22866,,,"Bennison-Chapman 2019"
"Kfar HaHoresh",3,"Neolithic",,,,,"Bennison-Chapman 2019"
"Nahal ören",3,"Neolithic",,,,,"Bennison-Chapman 2019"
"Gilgal",3,"Neolithic",,,,,"Bennison-Chapman 2019"
"Tell Abu Suwwan",3,"Neolithic",,,,,"Bennison-Chapman 2019"
"Ain Ghazal",2,"Neolithic",31.986964,35.976465,,163,"Bennison-Chapman 2019"
"Azraq 3",3,"Neolithic",,,,,"Bennison-Chapman 2019"
"Wadi Shu’sib",3,"Neolithic",,,,,"Bennison-Chapman 2019"
"Wadi Jilat",3,"Neolithic",,,,,"Bennison-Chapman 2019"
"Es Sifiya",2,"Neolithic",,,,78,"Bennison-Chapman 2019"
"Khirbet Iskkander",5,"Post-Neolithic",31.556717,35.771193,,,"Bennison-Chapman 2019"
"Dhra",4,"Neolithic",,,,,"Bennison-Chapman 2019"
"Bab edh-Dhra’",5,"Neolithic",31.2532,35.5331,,,"Bennison-Chapman 2019"
"Ghwair",3,"Neolithic",,,,,"Bennison-Chapman 2019"
"Basta",3,"Neolithic",30.57144,31.514112,,,"Bennison-Chapman 2019"
"Beidhe",3,"Neolithic",,,,,"Bennison-Chapman 2019"
"Ba’ja",3,"Neolithic",,,,,"Bennison-Chapman 2019"
"Wadi Faynan 16",3,"Neolithic",,,,,"Bennison-Chapman 2019"
"'Ein Ziq",5,"Post-Neolithic",,,,,"Bennison-Chapman 2019"
"Tell Arad",5,"Post-Neolithic",31.2799,35.1254,,,"Bennison-Chapman 2019"
"Jericho",2,"Neolithic",31.871104,35.443976,,24,"Bennison-Chapman 2019"
"Abu Ghosh",3,"Neolithic",,,,,"Bennison-Chapman 2019"
"Netiv Gagdud",3,"Neolithic",,,,,"Bennison-Chapman 2019"
"Çayönü Tepesi",2,"Neolithic",38.218723,39.728824,,38,"Bennison-Chapman 2019"
"Hakemi Use",3,"Neolithic",37.8,40.74,,5,"Bennison-Chapman 2019"
"Salat Camii Yanı",2,"Neolithic",37.840724,40.894235,,15,"Bennison-Chapman 2019"
"Kortik Tepe",3,"Neolithic",,,,,"Bennison-Chapman 2019"
"Demirköy",2,"Neolithic",,,,4,"Bennison-Chapman 2019"
"Hallan Çemi",3,"Neolithic",,,,,"Bennison-Chapman 2019"
"Tell Halaf",2,"Neolithic",36.82656,40.03912,,7,"Bennison-Chapman 2019"
"Tell Sabi Abyad",1,"Neolithic",36.503571,39.092935,,393,"Bennison-Chapman 2019"
"Tell Hemmeh",,,,,,2,"Bennison-Chapman 2019"
"Yarim Tepe",3,"Neolithic",37.267,55.109,,,"Bennison-Chapman 2019"
"Qermez Dere",3,"Neolithic",35.032069,48.95015,"?uncertain",,"Bennison-Chapman 2019"
"Tell Arpachiyah",2,"Neolithic",36.377646,43.210932,,20,"Bennison-Chapman 2019"
"Tepe Gawra",5,"Post-Neolithic",36.495824,43.260433,,,"Bennison-Chapman 2019"
"Nuzi",5,"Post-Neolithic",35.369561,44.254878,,,"Bennison-Chapman 2019"
"Jarmo",2,"Neolithic",35.555817,44.930356,,620,"Bennison-Chapman 2019"
"Haji Firuz Tepe",2,"Neolithic",37.13,45.71,,28,"Bennison-Chapman 2019"
"Tell Abada",5,"Post-Neolithic",34.1096,45.12281,"?uncertain",,"Bennison-Chapman 2019"
"Sarab",2,"Neolithic",34.199,47.199,,37,"Bennison-Chapman 2019"
"Sheikh-e Abada",3,"Neolithic",,,,,"Bennison-Chapman 2019"
"Tepe Zaghan",3,"Neolithic",36.549334,40.751912,,,"Bennison-Chapman 2019"
"Ganj Daran Tepe",3,"Neolithic",,,,,"Bennison-Chapman 2019"
"Tepe Abdul Hosein",3,"Neolithic",,,,,"Bennison-Chapman 2019"
"Tepe Aslan",3,"Neolithic",,,,,"Bennison-Chapman 2019"
"Jani",3,"Neolithic",,,,,"Bennison-Chapman 2019"
"Tepe Guran",3,"Neolithic",,,,,"Bennison-Chapman 2019"
"Tepe Farukhabad",3,"Neolithic",,,,,"Bennison-Chapman 2019"
"Choga Mish",5,"Post-Neolithic",,,,,"Bennison-Chapman 2019"
"Susa",5,"Post-Neolithic",,,,,"Bennison-Chapman 2019"
"Ur",5,"Post-Neolithic",30.96179,46.10414,,,"Bennison-Chapman 2019"
"Uruk",5,"Post-Neolithic",31.32283,45.63645,,,"Bennison-Chapman 2019"
"Jeitun",3,"Neolithic",38.37366,57.51649,"location wrong",,"Bennison-Chapman 2019"
"Anau",3,"Neolithic",37.903585,58.5311,,,"Bennison-Chapman 2019"
